npc/build/waveform/sim_main.vcd
$version Generated by VerilatedVcd $end
$date Sun Apr  3 23:53:17 2022 $end
$timescale 1ps $end

 $scope module TOP $end
  $var wire  1 .! clock $end
  $var wire 64 1! io_imem_addr [63:0] $end
  $var wire 32 3! io_imem_data [31:0] $end
  $var wire  1 0! io_imem_en $end
  $var wire  1 /! reset $end
  $scope module SimTop $end
   $var wire  1 .! clock $end
   $var wire  1 .! core_clock $end
   $var wire 64 # core_io_imem_addr [63:0] $end
   $var wire 32 3! core_io_imem_data [31:0] $end
   $var wire  1 /! core_reset $end
   $var wire 64 1! io_imem_addr [63:0] $end
   $var wire 32 3! io_imem_data [31:0] $end
   $var wire  1 0! io_imem_en $end
   $var wire  1 /! reset $end
   $scope module core $end
    $var wire  1 .! clock $end
    $var wire  1 .! halt_clk $end
    $var wire  1 A! halt_halt $end
    $var wire  1 /! halt_reset $end
    $var wire 16 j idu_io_decode_info_alu_code [15:0] $end
    $var wire  8 k idu_io_decode_info_bu_code [7:0] $end
    $var wire  4 i idu_io_decode_info_fu_code [3:0] $end
    $var wire 64 r idu_io_imm [63:0] $end
    $var wire 32 3! idu_io_inst [31:0] $end
    $var wire 64 n idu_io_op1 [63:0] $end
    $var wire 64 p idu_io_op2 [63:0] $end
    $var wire  5 8! idu_io_rd_addr [4:0] $end
    $var wire  1 5! idu_io_rd_en $end
    $var wire  5 6! idu_io_rs1_addr [4:0] $end
    $var wire 64 9! idu_io_rs1_data [63:0] $end
    $var wire  1 l idu_io_rs1_en $end
    $var wire  5 7! idu_io_rs2_addr [4:0] $end
    $var wire 64 ;! idu_io_rs2_data [63:0] $end
    $var wire  1 m idu_io_rs2_en $end
    $var wire 16 j ieu_io_decode_info_alu_code [15:0] $end
    $var wire  8 k ieu_io_decode_info_bu_code [7:0] $end
    $var wire  4 i ieu_io_decode_info_fu_code [3:0] $end
    $var wire 64 r ieu_io_imm [63:0] $end
    $var wire  1 h ieu_io_jump_en $end
    $var wire 64 ?! ieu_io_jump_pc [63:0] $end
    $var wire 64 n ieu_io_op1 [63:0] $end
    $var wire 64 p ieu_io_op2 [63:0] $end
    $var wire 64 =! ieu_io_out [63:0] $end
    $var wire 64 # ieu_io_pc [63:0] $end
    $var wire  1 .! ifu_clock $end
    $var wire 64 # ifu_io_imem_addr [63:0] $end
    $var wire 32 3! ifu_io_imem_data [31:0] $end
    $var wire 32 3! ifu_io_inst [31:0] $end
    $var wire  1 h ifu_io_jump_en $end
    $var wire 32 4! ifu_io_jump_pc [31:0] $end
    $var wire 64 # ifu_io_pc [63:0] $end
    $var wire  1 /! ifu_reset $end
    $var wire 64 # io_imem_addr [63:0] $end
    $var wire 32 3! io_imem_data [31:0] $end
    $var wire  1 /! reset $end
    $var wire  1 .! rfu_clk $end
    $var wire  5 8! rfu_rd_addr [4:0] $end
    $var wire 64 =! rfu_rd_data [63:0] $end
    $var wire  1 5! rfu_rd_en $end
    $var wire  1 /! rfu_reset $end
    $var wire  5 6! rfu_rs1_addr [4:0] $end
    $var wire 64 9! rfu_rs1_data [63:0] $end
    $var wire  1 l rfu_rs1_en $end
    $var wire  5 7! rfu_rs2_addr [4:0] $end
    $var wire 64 ;! rfu_rs2_data [63:0] $end
    $var wire  1 m rfu_rs2_en $end
    $scope module halt $end
     $var wire  1 .! clk $end
     $var wire  1 A! halt $end
     $var wire  1 g halt_reg(0) $end
     $var wire  1 /! reset $end
    $upscope $end
    $scope module idu $end
     $var wire  1 N! add $end
     $var wire  1 P! addi $end
     $var wire  1 Q! addiw $end
     $var wire  1 O! addw $end
     $var wire  1 s! alu_add $end
     $var wire  1 t! alu_addw $end
     $var wire  1 y alu_and $end
     $var wire  1 U! alu_auipc $end
     $var wire 16 ~ alu_code [15:0] $end
     $var wire  8 } alu_code_hi [7:0] $end
     $var wire  8 | alu_code_lo [7:0] $end
     $var wire  1 !! alu_en $end
     $var wire  1 x alu_or $end
     $var wire  1 u! alu_sll $end
     $var wire  1 t alu_sllw $end
     $var wire  1 z alu_slt $end
     $var wire  1 { alu_sltu $end
     $var wire  1 w! alu_sra $end
     $var wire  1 v alu_sraw $end
     $var wire  1 v! alu_srl $end
     $var wire  1 u alu_srlw $end
     $var wire  1 R! alu_sub $end
     $var wire  1 S! alu_subw $end
     $var wire  1 w alu_xor $end
     $var wire  1 X! and_ $end
     $var wire  1 [! andi $end
     $var wire  1 `! beq $end
     $var wire  1 c! bge $end
     $var wire  1 e! bgeu $end
     $var wire  1 b! blt $end
     $var wire  1 d! bltu $end
     $var wire  1 a! bne $end
     $var wire  8 z! bu_code [7:0] $end
     $var wire  4 y! bu_code_hi [3:0] $end
     $var wire  4 x! bu_code_lo [3:0] $end
     $var wire  1 {! bu_en $end
     $var wire  2 #" fu_code_hi [1:0] $end
     $var wire  2 "" fu_code_lo [1:0] $end
     $var wire 64 r imm [63:0] $end
     $var wire 56 1" imm_b [55:0] $end
     $var wire 43 ," imm_b_hi_hi_hi [42:0] $end
     $var wire  1 ." imm_b_hi_lo $end
     $var wire  6 /" imm_b_lo_hi_hi [5:0] $end
     $var wire  4 0" imm_b_lo_hi_lo [3:0] $end
     $var wire 64 '" imm_i [63:0] $end
     $var wire 52 $" imm_i_hi [51:0] $end
     $var wire 12 &" imm_i_lo [11:0] $end
     $var wire 64 (! imm_j [63:0] $end
     $var wire  8 7" imm_j_hi_lo [7:0] $end
     $var wire  1 8" imm_j_lo_hi_hi $end
     $var wire 10 9" imm_j_lo_hi_lo [9:0] $end
     $var wire 64 *" imm_s [63:0] $end
     $var wire  7 )" imm_s_hi_lo [6:0] $end
     $var wire  5 8! imm_s_lo [4:0] $end
     $var wire 64 5" imm_u [63:0] $end
     $var wire 32 3" imm_u_hi_hi [31:0] $end
     $var wire 20 4" imm_u_hi_lo [19:0] $end
     $var wire  6 '! inst_type [5:0] $end
     $var wire 16 j io_decode_info_alu_code [15:0] $end
     $var wire  8 k io_decode_info_bu_code [7:0] $end
     $var wire  4 i io_decode_info_fu_code [3:0] $end
     $var wire 64 r io_imm [63:0] $end
     $var wire 32 3! io_inst [31:0] $end
     $var wire 64 n io_op1 [63:0] $end
     $var wire 64 p io_op2 [63:0] $end
     $var wire  5 8! io_rd_addr [4:0] $end
     $var wire  1 5! io_rd_en $end
     $var wire  5 6! io_rs1_addr [4:0] $end
     $var wire 64 9! io_rs1_data [63:0] $end
     $var wire  1 l io_rs1_en $end
     $var wire  5 7! io_rs2_addr [4:0] $end
     $var wire 64 ;! io_rs2_data [63:0] $end
     $var wire  1 m io_rs2_en $end
     $var wire  1 f! jal $end
     $var wire  1 g! jalr $end
     $var wire  1 h! lb $end
     $var wire  1 l! lbu $end
     $var wire  1 k! ld $end
     $var wire  1 i! lh $end
     $var wire  1 m! lhu $end
     $var wire  7 |! lu_code [6:0] $end
     $var wire  1 }! lu_en $end
     $var wire  1 T! lui $end
     $var wire  1 j! lw $end
     $var wire  1 n! lwu $end
     $var wire  1 W! or_ $end
     $var wire  1 Z! ori $end
     $var wire  1 o! sb $end
     $var wire  1 r! sd $end
     $var wire  1 p! sh $end
     $var wire  1 B! sll $end
     $var wire  1 E! slli $end
     $var wire  1 K! slliw $end
     $var wire  1 H! sllw $end
     $var wire  1 \! slt $end
     $var wire  1 ^! slti $end
     $var wire  1 _! sltiu $end
     $var wire  1 ]! sltu $end
     $var wire  1 D! sra $end
     $var wire  1 G! srai $end
     $var wire  1 M! sraiw $end
     $var wire  1 J! sraw $end
     $var wire  1 C! srl $end
     $var wire  1 F! srli $end
     $var wire  1 L! srliw $end
     $var wire  1 I! srlw $end
     $var wire  4 ~! su_code [3:0] $end
     $var wire  1 !" su_en $end
     $var wire  1 q! sw $end
     $var wire  1 %! type_b $end
     $var wire  1 #! type_i $end
     $var wire  1 "! type_r $end
     $var wire  1 $! type_s $end
     $var wire  1 &! type_u $end
     $var wire  1 V! xor_ $end
     $var wire  1 Y! xori $end
    $upscope $end
    $scope module ieu $end
     $var wire 127 *! alu_out [126:0] $end
     $var wire 64 :" bu_out [63:0] $end
     $var wire 16 j io_decode_info_alu_code [15:0] $end
     $var wire  8 k io_decode_info_bu_code [7:0] $end
     $var wire  4 i io_decode_info_fu_code [3:0] $end
     $var wire 64 r io_imm [63:0] $end
     $var wire  1 h io_jump_en $end
     $var wire 64 ?! io_jump_pc [63:0] $end
     $var wire 64 n io_op1 [63:0] $end
     $var wire 64 p io_op2 [63:0] $end
     $var wire 64 =! io_out [63:0] $end
     $var wire 64 # io_pc [63:0] $end
    $upscope $end
    $scope module ifu $end
     $var wire  1 .! clock $end
     $var wire 64 # io_imem_addr [63:0] $end
     $var wire 32 3! io_imem_data [31:0] $end
     $var wire 32 3! io_inst [31:0] $end
     $var wire  1 h io_jump_en $end
     $var wire 32 4! io_jump_pc [31:0] $end
     $var wire 64 # io_pc [63:0] $end
     $var wire 32 % pc [31:0] $end
     $var wire  1 /! reset $end
    $upscope $end
    $scope module rfu $end
     $var wire  1 .! clk $end
     $var wire 64 @" rd_addr [63:0] $end
     $var wire 64 =! rd_data [63:0] $end
     $var wire  1 5! rd_en $end
     $var wire  1 /! reset $end
     $var wire 64 & rf(0) [63:0] $end
     $var wire 64 ( rf(1) [63:0] $end
     $var wire 64 : rf(10) [63:0] $end
     $var wire 64 < rf(11) [63:0] $end
     $var wire 64 > rf(12) [63:0] $end
     $var wire 64 @ rf(13) [63:0] $end
     $var wire 64 B rf(14) [63:0] $end
     $var wire 64 D rf(15) [63:0] $end
     $var wire 64 F rf(16) [63:0] $end
     $var wire 64 H rf(17) [63:0] $end
     $var wire 64 J rf(18) [63:0] $end
     $var wire 64 L rf(19) [63:0] $end
     $var wire 64 * rf(2) [63:0] $end
     $var wire 64 N rf(20) [63:0] $end
     $var wire 64 P rf(21) [63:0] $end
     $var wire 64 R rf(22) [63:0] $end
     $var wire 64 T rf(23) [63:0] $end
     $var wire 64 V rf(24) [63:0] $end
     $var wire 64 X rf(25) [63:0] $end
     $var wire 64 Z rf(26) [63:0] $end
     $var wire 64 \ rf(27) [63:0] $end
     $var wire 64 ^ rf(28) [63:0] $end
     $var wire 64 ` rf(29) [63:0] $end
     $var wire 64 , rf(3) [63:0] $end
     $var wire 64 b rf(30) [63:0] $end
     $var wire 64 d rf(31) [63:0] $end
     $var wire 64 . rf(4) [63:0] $end
     $var wire 64 0 rf(5) [63:0] $end
     $var wire 64 2 rf(6) [63:0] $end
     $var wire 64 4 rf(7) [63:0] $end
     $var wire 64 6 rf(8) [63:0] $end
     $var wire 64 8 rf(9) [63:0] $end
     $var wire 64 <" rs1_addr [63:0] $end
     $var wire 64 9! rs1_data [63:0] $end
     $var wire  1 l rs1_en $end
     $var wire 64 >" rs2_addr [63:0] $end
     $var wire 64 ;! rs2_data [63:0] $end
     $var wire  1 m rs2_en $end
     $scope module unnamedblk1 $end
      $var wire 32 f i [31:0] $end
     $upscope $end
    $upscope $end
   $upscope $end
  $upscope $end
 $upscope $end
$enddefinitions $end


#0
b0000000000000000000000000000000000000000000000000000000000000000 #
b00000000000000000000000000000000 %
b0000000000000000000000000000000000000000000000000000000000000000 &
b0000000000000000000000000000000000000000000000000000000000000000 (
b0000000000000000000000000000000000000000000000000000000000000000 *
b0000000000000000000000000000000000000000000000000000000000000000 ,
b0000000000000000000000000000000000000000000000000000000000000000 .
b0000000000000000000000000000000000000000000000000000000000000000 0
b0000000000000000000000000000000000000000000000000000000000000000 2
b0000000000000000000000000000000000000000000000000000000000000000 4
b0000000000000000000000000000000000000000000000000000000000000000 6
b0000000000000000000000000000000000000000000000000000000000000000 8
b0000000000000000000000000000000000000000000000000000000000000000 :
b0000000000000000000000000000000000000000000000000000000000000000 <
b0000000000000000000000000000000000000000000000000000000000000000 >
b0000000000000000000000000000000000000000000000000000000000000000 @
b0000000000000000000000000000000000000000000000000000000000000000 B
b0000000000000000000000000000000000000000000000000000000000000000 D
b0000000000000000000000000000000000000000000000000000000000000000 F
b0000000000000000000000000000000000000000000000000000000000000000 H
b0000000000000000000000000000000000000000000000000000000000000000 J
b0000000000000000000000000000000000000000000000000000000000000000 L
b0000000000000000000000000000000000000000000000000000000000000000 N
b0000000000000000000000000000000000000000000000000000000000000000 P
b0000000000000000000000000000000000000000000000000000000000000000 R
b0000000000000000000000000000000000000000000000000000000000000000 T
b0000000000000000000000000000000000000000000000000000000000000000 V
b0000000000000000000000000000000000000000000000000000000000000000 X
b0000000000000000000000000000000000000000000000000000000000000000 Z
b0000000000000000000000000000000000000000000000000000000000000000 \
b0000000000000000000000000000000000000000000000000000000000000000 ^
b0000000000000000000000000000000000000000000000000000000000000000 `
b0000000000000000000000000000000000000000000000000000000000000000 b
b0000000000000000000000000000000000000000000000000000000000000000 d
b00000000000000000000000000000000 f
0g
0h
b0000 i
b0000000000000000 j
b00000000 k
0l
0m
b0000000000000000000000000000000000000000000000000000000000000000 n
b0000000000000000000000000000000000000000000000000000000000000000 p
b0000000000000000000000000000000000000000000000000000000000000000 r
0t
0u
0v
0w
0x
0y
0z
0{
b00000000 |
b00000000 }
b0000000000000000 ~
0!!
0"!
0#!
0$!
0%!
0&!
b000000 '!
b0000000000000000000000000000000000000000000000000000000000000000 (!
b0000000000000000000000000000000000000000000000000000000000000000000000000000000000000000000000000000000000000000000000000000000 *!
0.!
1/!
10!
b0000000000000000000000000000000000000000000000000000000000000000 1!
b00000000000000000000000000000000 3!
b00000000000000000000000000000000 4!
05!
b00000 6!
b00000 7!
b00000 8!
b0000000000000000000000000000000000000000000000000000000000000000 9!
b0000000000000000000000000000000000000000000000000000000000000000 ;!
b0000000000000000000000000000000000000000000000000000000000000000 =!
b0000000000000000000000000000000000000000000000000000000000000000 ?!
0A!
0B!
0C!
0D!
0E!
0F!
0G!
0H!
0I!
0J!
0K!
0L!
0M!
0N!
0O!
0P!
0Q!
0R!
0S!
0T!
0U!
0V!
0W!
0X!
0Y!
0Z!
0[!
0\!
0]!
0^!
0_!
0`!
0a!
0b!
0c!
0d!
0e!
0f!
0g!
0h!
0i!
0j!
0k!
0l!
0m!
0n!
0o!
0p!
0q!
0r!
0s!
0t!
0u!
0v!
0w!
b0000 x!
b0000 y!
b00000000 z!
0{!
b0000000 |!
0}!
b0000 ~!
0!"
b00 ""
b00 #"
b0000000000000000000000000000000000000000000000000000 $"
b000000000000 &"
b0000000000000000000000000000000000000000000000000000000000000000 '"
b0000000 )"
b0000000000000000000000000000000000000000000000000000000000000000 *"
b0000000000000000000000000000000000000000000 ,"
0."
b000000 /"
b0000 0"
b00000000000000000000000000000000000000000000000000000000 1"
b00000000000000000000000000000000 3"
b00000000000000000000 4"
b0000000000000000000000000000000000000000000000000000000000000000 5"
b00000000 7"
08"
b0000000000 9"
b0000000000000000000000000000000000000000000000000000000000000000 :"
b0000000000000000000000000000000000000000000000000000000000000000 <"
b0000000000000000000000000000000000000000000000000000000000000000 >"
b0000000000000000000000000000000000000000000000000000000000000000 @"
#1
b0000000000000000000000000000000010000000000000000000000000000000 #
b10000000000000000000000000000000 %
b00000000000000000000000000100000 f
b0001 i
b0000000000000001 j
b00000001 |
b0000000000000001 ~
1!!
1&!
b000010 '!
1.!
b0000000000000000000000000000000010000000000000000000000000000000 1!
b00000000000000000000000010110111 3!
b10000000000000000000000000000000 4!
15!
b00001 8!
b0000000000000000000000000000000010000000000000000000000000000000 ?!
1T!
1s!
b01 ""
b0000000000000000000000000000000000000000000000000000000000000001 *"
1."
b00000000000000000000000000000000000000000000100000000000 1"
b0000000000000000000000000000000000000000000000000000000000000001 @"
#2
0.!
0/!
#3
b0000000000000000000000000000000010000000000000000000000000000100 #
b10000000000000000000000000000100 %
1l
1#!
0&!
b010000 '!
1.!
b0000000000000000000000000000000010000000000000000000000000000100 1!
b00000000000000000000001110010011 3!
b10000000000000000000000000000100 4!
b00111 8!
b0000000000000000000000000000000010000000000000000000000000000100 ?!
1P!
0T!
b0000000000000000000000000000000000000000000000000000000000000111 *"
b0011 0"
b00000000000000000000000000000000000000000000100000000110 1"
b0000000000000000000000000000000000000000000000000000000000000111 @"
#4
0.!
#5
b0000000000000000000000000000000010000000000000000000000000001000 #
b10000000000000000000000000001000 %
b0000000000000000000000000000000000000000000000000000000000000010 p
b0000000000000000000000000000000000000000000000000000000000000010 r
b0000000000000000000000000000000000000000000000000000000000000010 (!
b0000000000000000000000000000000000000000000000000000000000000000000000000000000000000000000000000000000000000000000000000000010 *!
1.!
b0000000000000000000000000000000010000000000000000000000000001000 1!
b00000000001000000000000110010011 3!
b10000000000000000000000000001010 4!
b00010 7!
b00011 8!
b0000000000000000000000000000000000000000000000000000000000000010 =!
b0000000000000000000000000000000010000000000000000000000000001010 ?!
b000000000010 &"
b0000000000000000000000000000000000000000000000000000000000000010 '"
b0000000000000000000000000000000000000000000000000000000000000011 *"
b0001 0"
b00000000000000000000000000000000000000000000100000000010 1"
b00000000001000000000 4"
b0000000000000000000000000000000000000000001000000000000000000000 5"
b0000000001 9"
b0000000000000000000000000000000000000000000000000000000000000010 >"
b0000000000000000000000000000000000000000000000000000000000000011 @"
#6
0.!
#7
b0000000000000000000000000000000010000000000000000000000000001100 #
b10000000000000000000000000001100 %
b0000000000000000000000000000000000000000000000000000000000000010 ,
b0010 i
b0000000000000000 j
b00000010 k
1m
b0000000000000000000000000000000000000000000000000000000000000000 p
b0000000000000000000000000000000000000000000000000000000001010100 r
b00000000 |
b0000000000000000 ~
0!!
0#!
1%!
b000100 '!
b0000000000000000000000000000000000000000000000001001100001000110 (!
b0000000000000000000000000000000000000000000000000000000000000000000000000000000000000000000000000000000000000000000000000000000 *!
1.!
b0000000000000000000000000000000010000000000000000000000000001100 1!
b00000100011100001001101001100011 3!
b10000000000000000000000001100000 4!
05!
b00001 6!
b00111 7!
b10100 8!
b0000000000000000000000000000000000000000000000000000000000000000 =!
b0000000000000000000000000000000010000000000000000000000001100000 ?!
0P!
1a!
0s!
b0010 x!
b00000010 z!
1{!
b10 ""
b000001000111 &"
b0000000000000000000000000000000000000000000000000000000001000111 '"
b0000010 )"
b0000000000000000000000000000000000000000000000000000000001010100 *"
0."
b000010 /"
b1010 0"
b00000000000000000000000000000000000000000000000001010100 1"
b00000100011100001001 4"
b0000000000000000000000000000000000000100011100001001000000000000 5"
b00001001 7"
18"
b0000100011 9"
b0000000000000000000000000000000000000000000000000000000000000001 <"
b0000000000000000000000000000000000000000000000000000000000000111 >"
b0000000000000000000000000000000000000000000000000000000000010100 @"
#8
0.!
#9
b0000000000000000000000000000000010000000000000000000000000010000 #
b10000000000000000000000000010000 %
b0001 i
b0000000000000001 j
b00000000 k
0l
0m
b1111111111111111111111111111111111111111111111111111000000000000 p
b1111111111111111111111111111111111111111111111111111000000000000 r
b00000001 |
b0000000000000001 ~
1!!
0%!
1&!
b000010 '!
b1111111111111111111111111111111111111111111111111111111111111110 (!
b0000000000000000000000000000000000000000000000000000000000000001111111111111111111111111111111111111111111111111111000000000000 *!
1.!
b0000000000000000000000000000000010000000000000000000000000010000 1!
b11111111111111111111000010110111 3!
b01111111111111111111000000010000 4!
15!
b11111 6!
b11111 7!
b00001 8!
b1111111111111111111111111111111111111111111111111111000000000000 =!
b0000000000000000000000000000000001111111111111111111000000010000 ?!
1T!
0a!
1s!
b0000 x!
b00000000 z!
0{!
b01 ""
b1111111111111111111111111111111111111111111111111111 $"
b111111111111 &"
b1111111111111111111111111111111111111111111111111111111111111111 '"
b1111111 )"
b1111111111111111111111111111111111111111111111111111111111100001 *"
b1111111111111111111111111111111111111111111 ,"
1."
b111111 /"
b0000 0"
b11111111111111111111111111111111111111111111111111100000 1"
b11111111111111111111111111111111 3"
b11111111111111111111 4"
b1111111111111111111111111111111111111111111111111111000000000000 5"
b11111111 7"
b1111111111 9"
b0000000000000000000000000000000000000000000000000000000000011111 <"
b0000000000000000000000000000000000000000000000000000000000011111 >"
b0000000000000000000000000000000000000000000000000000000000000001 @"
#10
0.!
#11
b0000000000000000000000000000000010000000000000000000000000010100 #
b10000000000000000000000000010100 %
b1111111111111111111111111111111111111111111111111111000000000000 (
b0000000010000000 j
1l
b1111111111111111111111111111111111111111111111111111000000000000 n
b0000000000000000000000000000000000000000000000000000010000000001 p
b0000000000000000000000000000000000000000000000000000010000000001 r
b10000000 |
b0000000010000000 ~
1#!
0&!
b010000 '!
b0000000000000000000000000000000000000000000000001101110000000000 (!
b0000000000000000000000000000000000000000000000000000000000000001111111111111111111111111111111111111111111111111111100000000000 *!
1.!
b0000000000000000000000000000000010000000000000000000000000010100 1!
b01000000000100001101000010010011 3!
b10000000000000000000010000010101 4!
b00001 6!
b00001 7!
b1111111111111111111111111111111111111111111111111111000000000000 9!
b1111111111111111111111111111111111111111111111111111100000000000 =!
b0000000000000000000000000000000010000000000000000000010000010101 ?!
1G!
0T!
0s!
1w!
b0000000000000000000000000000000000000000000000000000 $"
b010000000001 &"
b0000000000000000000000000000000000000000000000000000010000000001 '"
b0100000 )"
b0000000000000000000000000000000000000000000000000000010000000001 *"
b0000000000000000000000000000000000000000000 ,"
b100000 /"
b00000000000000000000000000000000000000000000110000000000 1"
b00000000000000000000000000000000 3"
b01000000000100001101 4"
b0000000000000000000000000000000001000000000100001101000000000000 5"
b00001101 7"
b1000000000 9"
b0000000000000000000000000000000000000000000000000000000000000001 <"
b0000000000000000000000000000000000000000000000000000000000000001 >"
#12
0.!
#13
b0000000000000000000000000000000010000000000000000000000000011000 #
b10000000000000000000000000011000 %
b1111111111111111111111111111111111111111111111111111100000000000 (
b0000000000000001 j
b0000000000000000000000000000000000000000000000000000000000000000 n
b1111111111111111111111111111111111111111111111111111100000000000 p
b1111111111111111111111111111111111111111111111111111100000000000 r
b00000001 |
b0000000000000001 ~
b1111111111111111111111111111111111111111111100000000000000000000 (!
1.!
b0000000000000000000000000000000010000000000000000000000000011000 1!
b10000000000000000000001110010011 3!
b01111111111111111111100000011000 4!
b00000 6!
b00000 7!
b00111 8!
b0000000000000000000000000000000000000000000000000000000000000000 9!
b0000000000000000000000000000000001111111111111111111100000011000 ?!
0G!
1P!
1s!
0w!
b1111111111111111111111111111111111111111111111111111 $"
b100000000000 &"
b1111111111111111111111111111111111111111111111111111100000000000 '"
b1000000 )"
b1111111111111111111111111111111111111111111111111111100000000111 *"
b1111111111111111111111111111111111111111111 ,"
b000000 /"
b0011 0"
b11111111111111111111111111111111111111111111100000000110 1"
b11111111111111111111111111111111 3"
b10000000000000000000 4"
b1111111111111111111111111111111110000000000000000000000000000000 5"
b00000000 7"
08"
b0000000000 9"
b0000000000000000000000000000000000000000000000000000000000000000 <"
b0000000000000000000000000000000000000000000000000000000000000000 >"
b0000000000000000000000000000000000000000000000000000000000000111 @"
#14
0.!
#15
b0000000000000000000000000000000010000000000000000000000000011100 #
b10000000000000000000000000011100 %
b1111111111111111111111111111111111111111111111111111100000000000 4
b0000000000000000000000000000000000000000000000000000000000000011 p
b0000000000000000000000000000000000000000000000000000000000000011 r
b0000000000000000000000000000000000000000000000000000100000000010 (!
b0000000000000000000000000000000000000000000000000000000000000000000000000000000000000000000000000000000000000000000000000000011 *!
1.!
b0000000000000000000000000000000010000000000000000000000000011100 1!
b00000000001100000000000110010011 3!
b10000000000000000000000000011111 4!
b00011 7!
b00011 8!
b0000000000000000000000000000000000000000000000000000000000000011 =!
b0000000000000000000000000000000010000000000000000000000000011111 ?!
b0000000000000000000000000000000000000000000000000000 $"
b000000000011 &"
b0000000000000000000000000000000000000000000000000000000000000011 '"
b0000000 )"
b0000000000000000000000000000000000000000000000000000000000000011 *"
b0000000000000000000000000000000000000000000 ,"
b0001 0"
b00000000000000000000000000000000000000000000100000000010 1"
b00000000000000000000000000000000 3"
b00000000001100000000 4"
b0000000000000000000000000000000000000000001100000000000000000000 5"
18"
b0000000001 9"
b0000000000000000000000000000000000000000000000000000000000000011 >"
b0000000000000000000000000000000000000000000000000000000000000011 @"
#16
0.!
#17
b0000000000000000000000000000000010000000000000000000000000100000 #
b10000000000000000000000000100000 %
b0000000000000000000000000000000000000000000000000000000000000011 ,
b0010 i
b0000000000000000 j
b00000010 k
1m
b1111111111111111111111111111111111111111111111111111100000000000 n
b1111111111111111111111111111111111111111111111111111100000000000 p
b0000000000000000000000000000000000000000000000000000000001000000 r
b00000000 |
b0000000000000000 ~
0!!
0#!
1%!
b000100 '!
b0000000000000000000000000000000000000000000000001001100001000110 (!
b0000000000000000000000000000000000000000000000000000000000000000000000000000000000000000000000000000000000000000000000000000000 *!
1.!
b0000000000000000000000000000000010000000000000000000000000100000 1!
b00000100011100001001000001100011 3!
b10000000000000000000000001100000 4!
05!
b00001 6!
b00111 7!
b00000 8!
b1111111111111111111111111111111111111111111111111111100000000000 9!
b1111111111111111111111111111111111111111111111111111100000000000 ;!
b0000000000000000000000000000000000000000000000000000000000000000 =!
b0000000000000000000000000000000010000000000000000000000001100000 ?!
0P!
1a!
0s!
b0010 x!
b00000010 z!
1{!
b10 ""
b000001000111 &"
b0000000000000000000000000000000000000000000000000000000001000111 '"
b0000010 )"
b0000000000000000000000000000000000000000000000000000000001000000 *"
0."
b000010 /"
b0000 0"
b00000000000000000000000000000000000000000000000001000000 1"
b00000100011100001001 4"
b0000000000000000000000000000000000000100011100001001000000000000 5"
b00001001 7"
b0000100011 9"
b0000000000000000000000000000000000000000000000000000000000000001 <"
b0000000000000000000000000000000000000000000000000000000000000111 >"
b0000000000000000000000000000000000000000000000000000000000000000 @"
#18
0.!
#19
b0000000000000000000000000000000010000000000000000000000000100100 #
b10000000000000000000000000100100 %
b0001 i
b0000000000000001 j
b00000000 k
0l
0m
b0000000000000000000000000000000000000000000000000000000000000000 n
b0000000000000000000000000000000001111111111111111111000000000000 p
b0000000000000000000000000000000001111111111111111111000000000000 r
b00000001 |
b0000000000000001 ~
1!!
0%!
1&!
b000010 '!
b0000000000000000000000000000000000000000000011111111111111111110 (!
b0000000000000000000000000000000000000000000000000000000000000000000000000000000000000000000000001111111111111111111000000000000 *!
1.!
b0000000000000000000000000000000010000000000000000000000000100100 1!
b01111111111111111111000010110111 3!
b11111111111111111111000000100100 4!
15!
b11111 6!
b11111 7!
b00001 8!
b0000000000000000000000000000000000000000000000000000000000000000 9!
b0000000000000000000000000000000000000000000000000000000000000000 ;!
b0000000000000000000000000000000001111111111111111111000000000000 =!
b0000000000000000000000000000000011111111111111111111000000100100 ?!
1T!
0a!
1s!
b0000 x!
b00000000 z!
0{!
b01 ""
b011111111111 &"
b0000000000000000000000000000000000000000000000000000011111111111 '"
b0111111 )"
b0000000000000000000000000000000000000000000000000000011111100001 *"
1."
b111111 /"
b00000000000000000000000000000000000000000000111111100000 1"
b01111111111111111111 4"
b0000000000000000000000000000000001111111111111111111000000000000 5"
b11111111 7"
b1111111111 9"
b0000000000000000000000000000000000000000000000000000000000011111 <"
b0000000000000000000000000000000000000000000000000000000000011111 >"
b0000000000000000000000000000000000000000000000000000000000000001 @"
#20
0.!
#21
b0000000000000000000000000000000010000000000000000000000000101000 #
b10000000000000000000000000101000 %
b0000000000000000000000000000000001111111111111111111000000000000 (
b0000000010000000 j
1l
b0000000000000000000000000000000001111111111111111111000000000000 n
b0000000000000000000000000000000000000000000000000000010000010100 p
b0000000000000000000000000000000000000000000000000000010000010100 r
b10000000 |
b0000000010000000 ~
1#!
0&!
b010000 '!
b0000000000000000000000000000000000000000000000001101010000010100 (!
b0000000000000000000000000000000000000000000000000000000000000000000000000000000000000000000000000000000000000000000011111111111 *!
1.!
b0000000000000000000000000000000010000000000000000000000000101000 1!
b01000001010000001101000010010011 3!
b10000000000000000000010000111100 4!
b00001 6!
b10100 7!
b0000000000000000000000000000000001111111111111111111000000000000 9!
b0000000000000000000000000000000000000000000000000000011111111111 =!
b0000000000000000000000000000000010000000000000000000010000111100 ?!
1G!
0T!
0s!
1w!
b010000010100 &"
b0000000000000000000000000000000000000000000000000000010000010100 '"
b0100000 )"
b0000000000000000000000000000000000000000000000000000010000000001 *"
b100000 /"
b00000000000000000000000000000000000000000000110000000000 1"
b01000001010000001101 4"
b0000000000000000000000000000000001000001010000001101000000000000 5"
b00001101 7"
08"
b1000001010 9"
b0000000000000000000000000000000000000000000000000000000000000001 <"
b0000000000000000000000000000000000000000000000000000000000010100 >"
#22
0.!
#23
b0000000000000000000000000000000010000000000000000000000000101100 #
b10000000000000000000000000101100 %
b0000000000000000000000000000000000000000000000000000011111111111 (
b0000000000000001 j
b0000000000000000000000000000000000000000000000000000000000000000 n
b0000000000000000000000000000000000000000000000000000011111111111 p
b0000000000000000000000000000000000000000000000000000011111111111 r
b00000001 |
b0000000000000001 ~
b0000000000000000000000000000000000000000000000000000111111111110 (!
1.!
b0000000000000000000000000000000010000000000000000000000000101100 1!
b01111111111100000000001110010011 3!
b10000000000000000000100000101011 4!
b00000 6!
b11111 7!
b00111 8!
b0000000000000000000000000000000000000000000000000000000000000000 9!
b0000000000000000000000000000000010000000000000000000100000101011 ?!
0G!
1P!
1s!
0w!
b011111111111 &"
b0000000000000000000000000000000000000000000000000000011111111111 '"
b0111111 )"
b0000000000000000000000000000000000000000000000000000011111100111 *"
b111111 /"
b0011 0"
b00000000000000000000000000000000000000000000111111100110 1"
b01111111111100000000 4"
b0000000000000000000000000000000001111111111100000000000000000000 5"
b00000000 7"
18"
b1111111111 9"
b0000000000000000000000000000000000000000000000000000000000000000 <"
b0000000000000000000000000000000000000000000000000000000000011111 >"
b0000000000000000000000000000000000000000000000000000000000000111 @"
#24
0.!
