npc/build/waveform/sim_main.vcd
$version Generated by VerilatedVcd $end
$date Sun Apr  3 13:52:48 2022 $end
$timescale 1ps $end

 $scope module TOP $end
  $var wire  1 h clock $end
  $var wire 64 k io_imem_addr [63:0] $end
  $var wire 32 m io_imem_data [31:0] $end
  $var wire  1 j io_imem_en $end
  $var wire  1 i reset $end
  $scope module SimTop $end
   $var wire  1 h clock $end
   $var wire  1 h core_clock $end
   $var wire 64 # core_io_imem_addr [63:0] $end
   $var wire 32 m core_io_imem_data [31:0] $end
   $var wire  1 i core_reset $end
   $var wire 64 k io_imem_addr [63:0] $end
   $var wire 32 m io_imem_data [31:0] $end
   $var wire  1 j io_imem_en $end
   $var wire  1 i reset $end
   $scope module core $end
    $var wire  1 h clock $end
    $var wire  1 h halt_clk $end
    $var wire  1 | halt_halt $end
    $var wire  1 i halt_reset $end
    $var wire  1 n idu_io_decode_info_alu_code $end
    $var wire  1 n idu_io_decode_info_fu_code $end
    $var wire 32 m idu_io_inst [31:0] $end
    $var wire 64 v idu_io_op1 [63:0] $end
    $var wire 64 x idu_io_op2 [63:0] $end
    $var wire  5 q idu_io_rd_addr [4:0] $end
    $var wire  1 n idu_io_rd_en $end
    $var wire  5 o idu_io_rs1_addr [4:0] $end
    $var wire 64 r idu_io_rs1_data [63:0] $end
    $var wire  1 n idu_io_rs1_en $end
    $var wire  5 p idu_io_rs2_addr [4:0] $end
    $var wire 64 t idu_io_rs2_data [63:0] $end
    $var wire  1 @! idu_io_rs2_en $end
    $var wire  1 n ieu_io_decode_info_alu_code $end
    $var wire  1 n ieu_io_decode_info_fu_code $end
    $var wire 64 v ieu_io_op1 [63:0] $end
    $var wire 64 x ieu_io_op2 [63:0] $end
    $var wire 64 z ieu_io_out [63:0] $end
    $var wire  1 h ifu_clock $end
    $var wire 64 # ifu_io_imem_addr [63:0] $end
    $var wire 32 m ifu_io_imem_data [31:0] $end
    $var wire 32 m ifu_io_inst [31:0] $end
    $var wire 64 # ifu_io_pc [63:0] $end
    $var wire  1 i ifu_reset $end
    $var wire 64 # io_imem_addr [63:0] $end
    $var wire 32 m io_imem_data [31:0] $end
    $var wire  1 i reset $end
    $var wire  1 h rfu_clk $end
    $var wire  5 q rfu_rd_addr [4:0] $end
    $var wire 64 z rfu_rd_data [63:0] $end
    $var wire  1 n rfu_rd_en $end
    $var wire  1 i rfu_reset $end
    $var wire  5 o rfu_rs1_addr [4:0] $end
    $var wire 64 r rfu_rs1_data [63:0] $end
    $var wire  1 n rfu_rs1_en $end
    $var wire  5 p rfu_rs2_addr [4:0] $end
    $var wire 64 t rfu_rs2_data [63:0] $end
    $var wire  1 @! rfu_rs2_en $end
    $scope module halt $end
     $var wire  1 h clk $end
     $var wire  1 | halt $end
     $var wire  1 g halt_reg(0) $end
     $var wire  1 i reset $end
    $upscope $end
    $scope module idu $end
     $var wire  1 n addi $end
     $var wire 64 x imm [63:0] $end
     $var wire 56 -! imm_b [55:0] $end
     $var wire 43 (! imm_b_hi_hi_hi [42:0] $end
     $var wire  1 *! imm_b_hi_lo $end
     $var wire  6 +! imm_b_lo_hi_hi [5:0] $end
     $var wire  4 ,! imm_b_lo_hi_lo [3:0] $end
     $var wire 64 #! imm_i [63:0] $end
     $var wire 52 ~ imm_i_hi [51:0] $end
     $var wire 12 "! imm_i_lo [11:0] $end
     $var wire 64 6! imm_j [63:0] $end
     $var wire  8 3! imm_j_hi_lo [7:0] $end
     $var wire  1 4! imm_j_lo_hi_hi $end
     $var wire 10 5! imm_j_lo_hi_lo [9:0] $end
     $var wire 64 &! imm_s [63:0] $end
     $var wire  7 %! imm_s_hi_lo [6:0] $end
     $var wire  5 q imm_s_lo [4:0] $end
     $var wire 64 1! imm_u [63:0] $end
     $var wire 32 /! imm_u_hi_hi [31:0] $end
     $var wire 20 0! imm_u_hi_lo [19:0] $end
     $var wire  6 } inst_type [5:0] $end
     $var wire  1 n io_decode_info_alu_code $end
     $var wire  1 n io_decode_info_fu_code $end
     $var wire 32 m io_inst [31:0] $end
     $var wire 64 v io_op1 [63:0] $end
     $var wire 64 x io_op2 [63:0] $end
     $var wire  5 q io_rd_addr [4:0] $end
     $var wire  1 n io_rd_en $end
     $var wire  5 o io_rs1_addr [4:0] $end
     $var wire 64 r io_rs1_data [63:0] $end
     $var wire  1 n io_rs1_en $end
     $var wire  5 p io_rs2_addr [4:0] $end
     $var wire 64 t io_rs2_data [63:0] $end
     $var wire  1 @! io_rs2_en $end
    $upscope $end
    $scope module ieu $end
     $var wire 64 8! alu_out [63:0] $end
     $var wire  1 n io_decode_info_alu_code $end
     $var wire  1 n io_decode_info_fu_code $end
     $var wire 64 v io_op1 [63:0] $end
     $var wire 64 x io_op2 [63:0] $end
     $var wire 64 z io_out [63:0] $end
    $upscope $end
    $scope module ifu $end
     $var wire  1 h clock $end
     $var wire 64 # io_imem_addr [63:0] $end
     $var wire 32 m io_imem_data [31:0] $end
     $var wire 32 m io_inst [31:0] $end
     $var wire 64 # io_pc [63:0] $end
     $var wire 32 % pc [31:0] $end
     $var wire  1 i reset $end
    $upscope $end
    $scope module rfu $end
     $var wire  1 h clk $end
     $var wire 64 >! rd_addr [63:0] $end
     $var wire 64 z rd_data [63:0] $end
     $var wire  1 n rd_en $end
     $var wire  1 i reset $end
     $var wire 64 & rf(0) [63:0] $end
     $var wire 64 ( rf(1) [63:0] $end
     $var wire 64 : rf(10) [63:0] $end
     $var wire 64 < rf(11) [63:0] $end
     $var wire 64 > rf(12) [63:0] $end
     $var wire 64 @ rf(13) [63:0] $end
     $var wire 64 B rf(14) [63:0] $end
     $var wire 64 D rf(15) [63:0] $end
     $var wire 64 F rf(16) [63:0] $end
     $var wire 64 H rf(17) [63:0] $end
     $var wire 64 J rf(18) [63:0] $end
     $var wire 64 L rf(19) [63:0] $end
     $var wire 64 * rf(2) [63:0] $end
     $var wire 64 N rf(20) [63:0] $end
     $var wire 64 P rf(21) [63:0] $end
     $var wire 64 R rf(22) [63:0] $end
     $var wire 64 T rf(23) [63:0] $end
     $var wire 64 V rf(24) [63:0] $end
     $var wire 64 X rf(25) [63:0] $end
     $var wire 64 Z rf(26) [63:0] $end
     $var wire 64 \ rf(27) [63:0] $end
     $var wire 64 ^ rf(28) [63:0] $end
     $var wire 64 ` rf(29) [63:0] $end
     $var wire 64 , rf(3) [63:0] $end
     $var wire 64 b rf(30) [63:0] $end
     $var wire 64 d rf(31) [63:0] $end
     $var wire 64 . rf(4) [63:0] $end
     $var wire 64 0 rf(5) [63:0] $end
     $var wire 64 2 rf(6) [63:0] $end
     $var wire 64 4 rf(7) [63:0] $end
     $var wire 64 6 rf(8) [63:0] $end
     $var wire 64 8 rf(9) [63:0] $end
     $var wire 64 :! rs1_addr [63:0] $end
     $var wire 64 r rs1_data [63:0] $end
     $var wire  1 n rs1_en $end
     $var wire 64 <! rs2_addr [63:0] $end
     $var wire 64 t rs2_data [63:0] $end
     $var wire  1 @! rs2_en $end
     $scope module unnamedblk1 $end
      $var wire 32 f i [31:0] $end
     $upscope $end
    $upscope $end
   $upscope $end
  $upscope $end
 $upscope $end
$enddefinitions $end


#0
b0000000000000000000000000000000000000000000000000000000000000000 #
b00000000000000000000000000000000 %
b0000000000000000000000000000000000000000000000000000000000000000 &
b0000000000000000000000000000000000000000000000000000000000000000 (
b0000000000000000000000000000000000000000000000000000000000000000 *
b0000000000000000000000000000000000000000000000000000000000000000 ,
b0000000000000000000000000000000000000000000000000000000000000000 .
b0000000000000000000000000000000000000000000000000000000000000000 0
b0000000000000000000000000000000000000000000000000000000000000000 2
b0000000000000000000000000000000000000000000000000000000000000000 4
b0000000000000000000000000000000000000000000000000000000000000000 6
b0000000000000000000000000000000000000000000000000000000000000000 8
b0000000000000000000000000000000000000000000000000000000000000000 :
b0000000000000000000000000000000000000000000000000000000000000000 <
b0000000000000000000000000000000000000000000000000000000000000000 >
b0000000000000000000000000000000000000000000000000000000000000000 @
b0000000000000000000000000000000000000000000000000000000000000000 B
b0000000000000000000000000000000000000000000000000000000000000000 D
b0000000000000000000000000000000000000000000000000000000000000000 F
b0000000000000000000000000000000000000000000000000000000000000000 H
b0000000000000000000000000000000000000000000000000000000000000000 J
b0000000000000000000000000000000000000000000000000000000000000000 L
b0000000000000000000000000000000000000000000000000000000000000000 N
b0000000000000000000000000000000000000000000000000000000000000000 P
b0000000000000000000000000000000000000000000000000000000000000000 R
b0000000000000000000000000000000000000000000000000000000000000000 T
b0000000000000000000000000000000000000000000000000000000000000000 V
b0000000000000000000000000000000000000000000000000000000000000000 X
b0000000000000000000000000000000000000000000000000000000000000000 Z
b0000000000000000000000000000000000000000000000000000000000000000 \
b0000000000000000000000000000000000000000000000000000000000000000 ^
b0000000000000000000000000000000000000000000000000000000000000000 `
b0000000000000000000000000000000000000000000000000000000000000000 b
b0000000000000000000000000000000000000000000000000000000000000000 d
b00000000000000000000000000000000 f
0g
0h
1i
1j
b0000000000000000000000000000000000000000000000000000000000000000 k
b00000000000000000000000000000000 m
0n
b00000 o
b00000 p
b00000 q
b0000000000000000000000000000000000000000000000000000000000000000 r
b0000000000000000000000000000000000000000000000000000000000000000 t
b0000000000000000000000000000000000000000000000000000000000000000 v
b0000000000000000000000000000000000000000000000000000000000000000 x
b0000000000000000000000000000000000000000000000000000000000000000 z
0|
b000000 }
b0000000000000000000000000000000000000000000000000000 ~
b000000000000 "!
b0000000000000000000000000000000000000000000000000000000000000000 #!
b0000000 %!
b0000000000000000000000000000000000000000000000000000000000000000 &!
b0000000000000000000000000000000000000000000 (!
0*!
b000000 +!
b0000 ,!
b00000000000000000000000000000000000000000000000000000000 -!
b00000000000000000000000000000000 /!
b00000000000000000000 0!
b0000000000000000000000000000000000000000000000000000000000000000 1!
b00000000 3!
04!
b0000000000 5!
b0000000000000000000000000000000000000000000000000000000000000000 6!
b0000000000000000000000000000000000000000000000000000000000000000 8!
b0000000000000000000000000000000000000000000000000000000000000000 :!
b0000000000000000000000000000000000000000000000000000000000000000 <!
b0000000000000000000000000000000000000000000000000000000000000000 >!
0@!
#1
b0000000000000000000000000000000010000000000000000000000000000000 #
b10000000000000000000000000000000 %
b00000000000000000000000000100000 f
1h
b0000000000000000000000000000000010000000000000000000000000000000 k
b00000000000000000000000010010011 m
1n
b00001 q
b010000 }
b0000000000000000000000000000000000000000000000000000000000000001 &!
1*!
b00000000000000000000000000000000000000000000100000000000 -!
b0000000000000000000000000000000000000000000000000000000000000001 >!
#2
0h
0i
#3
b0000000000000000000000000000000010000000000000000000000000000100 #
b10000000000000000000000000000100 %
1h
b0000000000000000000000000000000010000000000000000000000000000100 k
b00000000000000000000001110010011 m
b00111 q
b0000000000000000000000000000000000000000000000000000000000000111 &!
b0011 ,!
b00000000000000000000000000000000000000000000100000000110 -!
b0000000000000000000000000000000000000000000000000000000000000111 >!
#4
0h
#5
b0000000000000000000000000000000010000000000000000000000000001000 #
b10000000000000000000000000001000 %
1h
b0000000000000000000000000000000010000000000000000000000000001000 k
b00000000001000000000000110010011 m
b00010 p
b00011 q
b0000000000000000000000000000000000000000000000000000000000000010 x
b0000000000000000000000000000000000000000000000000000000000000010 z
b000000000010 "!
b0000000000000000000000000000000000000000000000000000000000000010 #!
b0000000000000000000000000000000000000000000000000000000000000011 &!
b0001 ,!
b00000000000000000000000000000000000000000000100000000010 -!
b00000000001000000000 0!
b0000000000000000000000000000000000000000001000000000000000000000 1!
b0000000001 5!
b0000000000000000000000000000000000000000000000000000000000000010 6!
b0000000000000000000000000000000000000000000000000000000000000010 8!
b0000000000000000000000000000000000000000000000000000000000000010 <!
b0000000000000000000000000000000000000000000000000000000000000011 >!
#6
0h
#7
b0000000000000000000000000000000010000000000000000000000000001100 #
b10000000000000000000000000001100 %
b0000000000000000000000000000000000000000000000000000000000000010 ,
1h
b0000000000000000000000000000000010000000000000000000000000001100 k
b00000000000100001000011100010011 m
b00001 o
b00001 p
b01110 q
b0000000000000000000000000000000000000000000000000000000000000001 x
b0000000000000000000000000000000000000000000000000000000000000001 z
b000000000001 "!
b0000000000000000000000000000000000000000000000000000000000000001 #!
b0000000000000000000000000000000000000000000000000000000000001110 &!
0*!
b0111 ,!
b00000000000000000000000000000000000000000000000000001110 -!
b00000000000100001000 0!
b0000000000000000000000000000000000000000000100001000000000000000 1!
b00001000 3!
14!
b0000000000 5!
b0000000000000000000000000000000000000000000000001000100000000000 6!
b0000000000000000000000000000000000000000000000000000000000000001 8!
b0000000000000000000000000000000000000000000000000000000000000001 :!
b0000000000000000000000000000000000000000000000000000000000000001 <!
b0000000000000000000000000000000000000000000000000000000000001110 >!
#8
0h
#9
b0000000000000000000000000000000010000000000000000000000000010000 #
b10000000000000000000000000010000 %
b0000000000000000000000000000000000000000000000000000000000000001 B
1h
b0000000000000000000000000000000010000000000000000000000000010000 k
b00000000011100001000011100010011 m
b00111 p
b0000000000000000000000000000000000000000000000000000000000000111 x
b0000000000000000000000000000000000000000000000000000000000000111 z
b000000000111 "!
b0000000000000000000000000000000000000000000000000000000000000111 #!
b00000000011100001000 0!
b0000000000000000000000000000000000000000011100001000000000000000 1!
b0000000011 5!
b0000000000000000000000000000000000000000000000001000100000000110 6!
b0000000000000000000000000000000000000000000000000000000000000111 8!
b0000000000000000000000000000000000000000000000000000000000000111 <!
#10
0h
#11
b0000000000000000000000000000000010000000000000000000000000010100 #
b10000000000000000000000000010100 %
b0000000000000000000000000000000000000000000000000000000000000111 B
1h
b0000000000000000000000000000000010000000000000000000000000010100 k
b00000000000000000000010100010011 m
b00000 o
b00000 p
b01010 q
b0000000000000000000000000000000000000000000000000000000000000000 x
b0000000000000000000000000000000000000000000000000000000000000000 z
b000000000000 "!
b0000000000000000000000000000000000000000000000000000000000000000 #!
b0000000000000000000000000000000000000000000000000000000000001010 &!
b0101 ,!
b00000000000000000000000000000000000000000000000000001010 -!
b00000000000000000000 0!
b0000000000000000000000000000000000000000000000000000000000000000 1!
b00000000 3!
04!
b0000000000 5!
b0000000000000000000000000000000000000000000000000000000000000000 6!
b0000000000000000000000000000000000000000000000000000000000000000 8!
b0000000000000000000000000000000000000000000000000000000000000000 :!
b0000000000000000000000000000000000000000000000000000000000000000 <!
b0000000000000000000000000000000000000000000000000000000000001010 >!
#12
0h
#13
b0000000000000000000000000000000010000000000000000000000000011000 #
b10000000000000000000000000011000 %
1h
b0000000000000000000000000000000010000000000000000000000000011000 k
b00000000000100000000000001110011 m
0n
b00001 p
b00000 q
1|
b000000 }
b000000000001 "!
b0000000000000000000000000000000000000000000000000000000000000001 #!
b0000000000000000000000000000000000000000000000000000000000000000 &!
b0000 ,!
b00000000000000000000000000000000000000000000000000000000 -!
b00000000000100000000 0!
b0000000000000000000000000000000000000000000100000000000000000000 1!
14!
b0000000000000000000000000000000000000000000000000000100000000000 6!
b0000000000000000000000000000000000000000000000000000000000000001 <!
b0000000000000000000000000000000000000000000000000000000000000000 >!
#14
0h
#15
b0000000000000000000000000000000010000000000000000000000000011100 #
b10000000000000000000000000011100 %
1g
1h
b0000000000000000000000000000000010000000000000000000000000011100 k
b00000000000000000000000000000000 m
b00000 p
0|
b000000000000 "!
b0000000000000000000000000000000000000000000000000000000000000000 #!
b00000000000000000000 0!
b0000000000000000000000000000000000000000000000000000000000000000 1!
04!
b0000000000000000000000000000000000000000000000000000000000000000 6!
b0000000000000000000000000000000000000000000000000000000000000000 <!
